{"content":[{"id":3035,"name":"Hayes Drilling","taskCategoryName":null},{"id":1456,"name":"Intern1","taskCategoryName":null},{"id":1406,"name":"Kwant","taskCategoryName":null},{"id":1407,"name":"Pagoda","taskCategoryName":null},{"id":1413,"name":"A&C  Electrical Services, Inc.","taskCategoryName":null},{"id":1409,"name":"Gupta","taskCategoryName":null},{"id":1410,"name":"Soapy","taskCategoryName":null},{"id":1411,"name":"Neha Test","taskCategoryName":null},{"id":1817,"name":"zit1","taskCategoryName":null},{"id":1715,"name":"Nucor West Virginia","taskCategoryName":null}],"last":false,"totalElements":206,"totalPages":21,"sort":null,"first":true,"numberOfElements":10,"size":10,"number":0}